Lab02/simulation/qsim/Lab02.msim.vcd
$comment
	File created using the following command:
		vcd file Lab02.msim.vcd -direction
$end
$date
	Sat Mar 16 13:19:03 2024
$end
$version
	ModelSim Version 10.1d
$end
$timescale
	1ps
$end
$scope module Lab02_vlg_vec_tst $end
$var reg 1 ! a $end
$var reg 1 " b $end
$var reg 1 # c $end
$var wire 1 $ s1 $end
$var wire 1 % sampler $end
$scope module i1 $end
$var wire 1 & gnd $end
$var wire 1 ' vcc $end
$var wire 1 ( unknown $end
$var tri1 1 ) devclrn $end
$var tri1 1 * devpor $end
$var tri1 1 + devoe $end
$var wire 1 , b~combout $end
$var wire 1 - a~combout $end
$var wire 1 . c~combout $end
$var wire 1 / inst3~0_combout $end
$upscope $end
$upscope $end
$enddefinitions $end
#0
$dumpvars
1!
0"
1#
1$
x%
0&
1'
x(
1)
1*
1+
0,
1-
1.
1/
$end
#100000
1"
1,
0%
#200000
0!
0#
0"
0-
0.
0,
1%
0/
0$
#300000
1!
1-
0%
#400000
1#
1"
0!
1.
1,
0-
1%
1/
1$
#500000
0"
1!
0,
1-
0%
#600000
0#
1"
0!
0.
1,
0-
1%
0/
0$
#700000
0"
0,
0%
#800000
1#
1"
1.
1,
1%
1/
1$
#900000
1!
0#
1-
0.
0%
